…
detail <- getFranchiseDetail()
detail
```

    ## # A tibble: 39 x 13
    ##    teamFullName     id active captainHistory   coachingHistory   dateAwarded directoryUrl
    ##    <chr>         <int> <lgl>  <chr>            <chr>             <date>      <chr>       
    ##  1 Montréal Can…     1 TRUE   Shea Weber: 201… Dominique Duchar… 1917-11-26  https://www…
    ##  2 Montreal Wan…     2 FALSE  <NA>             <NA>              1917-11-26  <NA>        
    ##  3 St. Louis Ea…     3 FALSE  <NA>             <NA>              1917-11-26  <NA>        
    ##  4 Hamilton Tig…     4 FALSE  <NA>             <NA>              1917-11-26  <NA>        
    ##  5 Toronto Mapl…     5 TRUE   John Tavares: 2… Sheldon Keefe: N… 1917-11-26  https://www…
    ##  6 Boston Bruins     6 TRUE   Patrice Bergero… Bruce Cassidy: F… 1924-11-01  https://www…
    ##  7 Montreal Mar…     7 FALSE  <NA>             <NA>              1924-11-01  <NA>        
    ##  8 Brooklyn Ame…     8 FALSE  <NA>             <NA>              1925-09-22  <NA>        
    ##  9 Philadelphia…     9 FALSE  <NA>             <NA>              1925-11-07  <NA>        
    ## 10 New York Ran…    10 TRUE   (No Captain): 2… Gerard Gallant: … 1926-05-15  https://www…
    ## # … with 29 more rows, and 6 more variables: firstSeasonId <int>,
    ## #   generalManagerHistory <chr>, heroImageUrl <chr>, mostRecentTeamId <int>,
    ## #   retiredNumbersSummary <chr>, teamAbbrev <chr>
…
``` r
stats
```

    ## # A tibble: 31 x 59
    ##       id name       wins winsRank evGGARatio evGGARatioRank faceOffsLost faceOffsLostRank
    ##    <int> <chr>     <dbl> <chr>         <dbl> <chr>                 <dbl> <chr>           
    ##  1     1 New Jers…    19 28th          0.829 21st                   1699 30th            
    ##  2     2 New York…    32 12th          1.24  7th                    1418 2nd             
    ##  3     3 New York…    27 16th          1.09  13th                   1680 29th            
    ##  4     4 Philadel…    25 18th          0.806 23rd                   1479 8th             
    ##  5     5 Pittsbur…    37 4th           1.27  5th                    1618 23rd            
    ##  6     6 Boston B…    33 11th          1.14  12th                   1418 1st             
    ##  7     7 Buffalo …    15 31st          0.635 31st                   1539 13th            
    ##  8     8 Montréal…    24 19th          1.03  17th                   1607 22nd            
    ##  9     9 Ottawa S…    23 23rd          0.803 24th                   1631 25th            
    ## 10    10 Toronto …    35 8th           1.38  3rd                    1458 3rd             
    ## # … with 21 more rows, and 51 more variables: faceOffsTaken <dbl>,
    ## #   faceOffsTakenRank <chr>, faceOffsWon <dbl>, faceOffsWonRank <chr>,
    ## #   faceOffWinPercentage <dbl>, faceOffWinPercentageRank <chr>, gamesPlayed <int>,
    ## #   goalsAgainstPerGame <dbl>, goalsAgainstPerGameRank <chr>, goalsPerGame <dbl>,
    ## #   goalsPerGameRank <chr>, losses <dbl>, lossesRank <chr>, ot <dbl>, otRank <chr>,
    ## #   penaltyKillOpportunitiesRank <chr>, penaltyKillPercentage <dbl>,
    ## #   penaltyKillPercentageRank <chr>, powerPlayGoals <dbl>, powerPlayGoalsRank <chr>,
    ## #   powerPlayGoalsAgainst <dbl>, powerPlayGoalsAgainstRank <chr>,
    ## #   powerPlayOpportunities <dbl>, powerPlayOpportunitiesRank <chr>,
…
getChoice("franchise", 26)
```

    ## # A tibble: 1 x 8
    ##      id firstSeasonId fullName    lastSeasonId mostRecentTeamId teamAbbrev teamCommonName
    ##   <int>         <int> <chr>       <lgl>                   <int> <chr>      <chr>         
    ## 1    26      19791980 Carolina H… NA                         12 CAR        Hurricanes    
    ## # … with 1 more variable: teamPlaceName <chr>

``` r
getChoice("totals")
```

    ## # A tibble: 105 x 30
    ##    teamId teamName    id activeFranchise firstSeasonId franchiseId gameTypeId gamesPlayed
    ##     <int> <chr>    <int> <fct>                   <int>       <int>      <int>       <int>
    ##  1      1 New Jer…     1 1                    19821983          23          2        2993
    ##  2      1 New Jer…     2 1                    19821983          23          3         257
    ##  3      2 New Yor…     3 1                    19721973          22          2        3788
    ##  4      2 New Yor…     4 1                    19721973          22          3         310
    ##  5      3 New Yor…     5 1                    19261927          10          2        6560
    ##  6      3 New Yor…     6 1                    19261927          10          3         518
    ##  7      4 Philade…     7 1                    19671968          16          3         449
    ##  8      4 Philade…     8 1                    19671968          16          2        4171
    ##  9      5 Pittsbu…     9 1                    19671968          17          2        4171
    ## 10      5 Pittsbu…    10 1                    19671968          17          3         391
    ## # … with 95 more rows, and 22 more variables: goalsAgainst <int>, goalsFor <int>,
    ## #   homeLosses <int>, homeOvertimeLosses <int>, homeTies <int>, homeWins <int>,
    ## #   lastSeasonId <int>, losses <int>, overtimeLosses <int>, penaltyMinutes <int>,
    ## #   pointPctg <dbl>, points <int>, roadLosses <int>, roadOvertimeLosses <int>,
    ## #   roadTies <int>, roadWins <int>, shootoutLosses <int>, shootoutWins <int>,
    ## #   shutouts <int>, ties <int>, triCode <chr>, wins <int>
…
``` r
getChoice("goalie", "Rangers")
```

    ## # A tibble: 43 x 29
    ##    firstName lastName    id activePlayer franchiseId franchiseName gameTypeId gamesPlayed
    ##    <chr>     <chr>    <int> <lgl>              <int> <chr>              <int>       <int>
    ##  1 John      Davidson   388 FALSE                 10 New York Ran…          2         222
    ##  2 Bob       Froese     417 FALSE                 10 New York Ran…          2          98
    ##  3 Glen      Hanlon     442 FALSE                 10 New York Ran…          2         138
    ##  4 Glenn     Healy      454 FALSE                 10 New York Ran…          2         113
    ##  5 Guy       Hebert     456 FALSE                 10 New York Ran…          2          13
    ##  6 Kirk      McLean     507 FALSE                 10 New York Ran…          2          45
    ##  7 Eddie     Mio        520 FALSE                 10 New York Ran…          2          66
    ##  8 Bill      Beverid…   540 FALSE                 10 New York Ran…          2          17
    ##  9 Johnny    Bower      546 FALSE                 10 New York Ran…          2          77
    ## 10 Lorne     Chabot    1211 FALSE                 10 New York Ran…          2          81
    ## # … with 33 more rows, and 21 more variables: losses <int>, mostGoalsAgainstDates <chr>,
    ## #   mostGoalsAgainstOneGame <int>, mostSavesDates <chr>, mostSavesOneGame <int>,
    ## #   mostShotsAgainstDates <chr>, mostShotsAgainstOneGame <int>,
    ## #   mostShutoutsOneSeason <int>, mostShutoutsSeasonIds <chr>, mostWinsOneSeason <int>,
    ## #   mostWinsSeasonIds <chr>, overtimeLosses <int>, playerId <int>, positionCode <chr>,
    ## #   rookieGamesPlayed <int>, rookieShutouts <int>, rookieWins <int>, seasons <int>,
    ## #   shutouts <int>, ties <int>, wins <int>

``` r
getChoice("skater", "Philadelphia Q")
```

    ## # A tibble: 38 x 31
    ##    firstName lastName      id activePlayer assists franchiseId franchiseName   gameTypeId
    ##    <chr>     <chr>      <int> <lgl>          <int>       <int> <chr>                <int>
    ##  1 D'arcy    Coulson    17095 FALSE              0           9 Philadelphia Q…          2
    ##  2 Louis     Berlinque… 17507 FALSE              0           9 Philadelphia Q…          2
    ##  3 Edmond    Bouchard   17607 FALSE              0           9 Philadelphia Q…          2
    ##  4 Stan      Crossett   18459 FALSE              0           9 Philadelphia Q…          2
    ##  5 Fred      Lowrey     20759 FALSE              0           9 Philadelphia Q…          2
    ##  6 Sam       Rothschild 22090 FALSE              0           9 Philadelphia Q…          2
    ##  7 Alf       Skinner    22856 FALSE              0           9 Philadelphia Q…          2
    ##  8 Marty     Burke      17770 FALSE              2           9 Philadelphia Q…          2
    ##  9 Bill      Hutton     20080 FALSE              0           9 Philadelphia Q…          2
    ## 10 Mickey    MacKay     20810 FALSE              0           9 Philadelphia Q…          2
    ## # … with 28 more rows, and 23 more variables: gamesPlayed <int>, goals <int>,
    ## #   mostAssistsGameDates <chr>, mostAssistsOneGame <int>, mostAssistsOneSeason <int>,
    ## #   mostAssistsSeasonIds <chr>, mostGoalsGameDates <chr>, mostGoalsOneGame <int>,
    ## #   mostGoalsOneSeason <int>, mostGoalsSeasonIds <chr>,
    ## #   mostPenaltyMinutesOneSeason <int>, mostPenaltyMinutesSeasonIds <chr>,
    ## #   mostPointsGameDates <chr>, mostPointsOneGame <int>, mostPointsOneSeason <int>,
    ## #   mostPointsSeasonIds <chr>, penaltyMinutes <int>, playerId <int>, points <int>,
    ## #   positionCode <chr>, rookieGamesPlayed <int>, rookiePoints <int>, seasons <int>

``` r
getChoice("detail")
```

    ## # A tibble: 39 x 13
    ##    teamFullName     id active captainHistory   coachingHistory   dateAwarded directoryUrl
    ##    <chr>         <int> <lgl>  <chr>            <chr>             <date>      <chr>       
    ##  1 Montréal Can…     1 TRUE   Shea Weber: 201… Dominique Duchar… 1917-11-26  https://www…
    ##  2 Montreal Wan…     2 FALSE  <NA>             <NA>              1917-11-26  <NA>        
    ##  3 St. Louis Ea…     3 FALSE  <NA>             <NA>              1917-11-26  <NA>        
    ##  4 Hamilton Tig…     4 FALSE  <NA>             <NA>              1917-11-26  <NA>        
    ##  5 Toronto Mapl…     5 TRUE   John Tavares: 2… Sheldon Keefe: N… 1917-11-26  https://www…
    ##  6 Boston Bruins     6 TRUE   Patrice Bergero… Bruce Cassidy: F… 1924-11-01  https://www…
    ##  7 Montreal Mar…     7 FALSE  <NA>             <NA>              1924-11-01  <NA>        
    ##  8 Brooklyn Ame…     8 FALSE  <NA>             <NA>              1925-09-22  <NA>        
    ##  9 Philadelphia…     9 FALSE  <NA>             <NA>              1925-11-07  <NA>        
    ## 10 New York Ran…    10 TRUE   (No Captain): 2… Gerard Gallant: … 1926-05-15  https://www…
    ## # … with 29 more rows, and 6 more variables: firstSeasonId <int>,
    ## #   generalManagerHistory <chr>, heroImageUrl <chr>, mostRecentTeamId <int>,
    ## #   retiredNumbersSummary <chr>, teamAbbrev <chr>
…
