…
38
Vegas Golden Knights

39
Seattle Kraken

You can enter the id or part/all of the team name

Examples of use of function with and without specific team request:

getNHL("franchise")

## # A tibble: 39 x 8
##       id firstSeasonId fullName  lastSeasonId
##    <int>         <int> <chr>            <int>
##  1     1      19171918 Montréal…           NA
##  2     2      19171918 Montreal…     19171918
##  3     3      19171918 St. Loui…     19341935
##  4     4      19191920 Hamilton…     19241925
##  5     5      19171918 Toronto …           NA
##  6     6      19241925 Boston B…           NA
##  7     7      19241925 Montreal…     19371938
##  8     8      19251926 Brooklyn…     19411942
##  9     9      19251926 Philadel…     19301931
## 10    10      19261927 New York…           NA
## # … with 29 more rows, and 4 more variables:
## #   mostRecentTeamId <int>,
## #   teamAbbrev <chr>, teamCommonName <chr>,
## #   teamPlaceName <chr>

getNHL("totals")

## # A tibble: 105 x 30
##    teamId teamName         id activeFranchise
##     <int> <chr>         <int> <fct>          
##  1      1 New Jersey D…     1 1              
##  2      1 New Jersey D…     2 1              
##  3      2 New York Isl…     3 1              
##  4      2 New York Isl…     4 1              
##  5      3 New York Ran…     5 1              
##  6      3 New York Ran…     6 1              
##  7      4 Philadelphia…     7 1              
##  8      4 Philadelphia…     8 1              
##  9      5 Pittsburgh P…     9 1              
## 10      5 Pittsburgh P…    10 1              
## # … with 95 more rows, and 26 more
## #   variables: firstSeasonId <int>,
## #   franchiseId <int>, gameTypeId <int>,
## #   gamesPlayed <int>, goalsAgainst <int>,
## #   goalsFor <int>, homeLosses <int>,
## #   homeOvertimeLosses <int>,
## #   homeTies <int>, homeWins <int>,
## #   lastSeasonId <int>, losses <int>,
## #   overtimeLosses <int>,
…
getNHL("goalie", 26)

## # A tibble: 38 x 29
##    firstName lastName       id activePlayer
##    <chr>     <chr>       <int> <lgl>       
##  1 Tom       Barrasso      336 FALSE       
##  2 Richard   Brodeur       363 FALSE       
##  3 Sean      Burke         369 FALSE       
##  4 Mark      Fitzpatrick   411 FALSE       
##  5 John      Garrett       425 FALSE       
##  6 Mario     Gosselin      430 FALSE       
##  7 Pat       Jablonski     470 FALSE       
##  8 Mike      Liut          490 FALSE       
##  9 Kirk      McLean        508 FALSE       
## 10 Greg      Millen        525 FALSE       
## # … with 28 more rows, and 25 more
## #   variables: franchiseId <int>,
## #   franchiseName <chr>, gameTypeId <int>,
## #   gamesPlayed <int>, losses <int>,
## #   mostGoalsAgainstDates <chr>,
## #   mostGoalsAgainstOneGame <int>,
## #   mostSavesDates <chr>,
## #   mostSavesOneGame <int>,
## #   mostShotsAgainstDates <chr>,
## #   mostShotsAgainstOneGame <int>,
## #   mostShutoutsOneSeason <int>,
## #   mostShutoutsSeasonIds <chr>,
## #   mostWinsOneSeason <int>,
## #   mostWinsSeasonIds <chr>,
## #   overtimeLosses <int>, playerId <int>,
## #   positionCode <chr>,
## #   rookieGamesPlayed <int>,
## #   rookieShutouts <int>, rookieWins <int>,
## #   seasons <int>, shutouts <int>,
## #   ties <int>, wins <int>

getNHL("skater", "Carolina")

## # A tibble: 487 x 31
##    firstName lastName        id activePlayer
##    <chr>     <chr>        <int> <lgl>       
##  1 Jim       Agnew        17239 FALSE       
##  2 Mike      Antonovich   17418 FALSE       
##  3 Fred      Arthur       17543 FALSE       
##  4 Jergus    Baca         17703 FALSE       
##  5 Reid      Bailey       17728 FALSE       
##  6 Bob       Bodak        18169 FALSE       
##  7 Charlie   Bourgeois    18233 FALSE       
##  8 Greg      Britz        18288 FALSE       
##  9 Jeff      Brownschidle 18328 FALSE       
## 10 Shane     Churla       18799 FALSE       
## # … with 477 more rows, and 27 more
## #   variables: assists <int>,
## #   franchiseId <int>, franchiseName <chr>,
## #   gameTypeId <int>, gamesPlayed <int>,
## #   goals <int>, mostAssistsGameDates <chr>,
## #   mostAssistsOneGame <int>,
## #   mostAssistsOneSeason <int>,
## #   mostAssistsSeasonIds <chr>,
## #   mostGoalsGameDates <chr>,
…
getNHL("detail")

## # A tibble: 39 x 13
##    teamFullName     id active captainHistory 
##    <chr>         <int> <lgl>  <chr>          
##  1 Montréal Can…     1 TRUE   Shea Weber: 20…
##  2 Montreal Wan…     2 FALSE  <NA>           
##  3 St. Louis Ea…     3 FALSE  <NA>           
##  4 Hamilton Tig…     4 FALSE  <NA>           
##  5 Toronto Mapl…     5 TRUE   John Tavares: …
##  6 Boston Bruins     6 TRUE   Patrice Berger…
##  7 Montreal Mar…     7 FALSE  <NA>           
##  8 Brooklyn Ame…     8 FALSE  <NA>           
##  9 Philadelphia…     9 FALSE  <NA>           
## 10 New York Ran…    10 TRUE   (No Captain): …
## # … with 29 more rows, and 9 more variables:
## #   coachingHistory <chr>,
## #   dateAwarded <date>, directoryUrl <chr>,
## #   firstSeasonId <int>,
## #   generalManagerHistory <chr>,
## #   heroImageUrl <chr>,
## #   mostRecentTeamId <int>,
## #   retiredNumbersSummary <chr>,
## #   teamAbbrev <chr>

getNHL("stats")

## # A tibble: 31 x 59
##       id name        wins winsRank evGGARatio
##    <int> <chr>      <dbl> <chr>         <dbl>
##  1     1 New Jerse…    19 28th          0.829
##  2     2 New York …    32 12th          1.24 
##  3     3 New York …    27 16th          1.09 
##  4     4 Philadelp…    25 18th          0.806
##  5     5 Pittsburg…    37 4th           1.27 
##  6     6 Boston Br…    33 11th          1.14 
##  7     7 Buffalo S…    15 31st          0.635
##  8     8 Montréal …    24 19th          1.03 
##  9     9 Ottawa Se…    23 23rd          0.803
## 10    10 Toronto M…    35 8th           1.38 
## # … with 21 more rows, and 54 more
## #   variables: evGGARatioRank <chr>,
## #   faceOffsLost <dbl>,
## #   faceOffsLostRank <chr>,
## #   faceOffsTaken <dbl>,
## #   faceOffsTakenRank <chr>,
## #   faceOffsWon <dbl>,
## #   faceOffsWonRank <chr>,
## #   faceOffWinPercentage <dbl>,
…
